\relax 
\catcode`"\active
\catcode`<\active
\catcode`>\active
\@nameuse{es@quoting}
\catcode`'\active
\select@language{spanish}
\@writefile{toc}{\select@language{spanish}}
\@writefile{lof}{\select@language{spanish}}
\@writefile{lot}{\select@language{spanish}}
\@writefile{toc}{\contentsline {section}{\numberline {1}Introducci\'on}{4}}
\@writefile{toc}{\contentsline {subsection}{\numberline {1.1}Normalizaci\'on de Vectores}{4}}
\@writefile{toc}{\contentsline {paragraph}{}{4}}
\@writefile{toc}{\contentsline {paragraph}{}{4}}
\@writefile{toc}{\contentsline {paragraph}{}{4}}
\@writefile{toc}{\contentsline {subsection}{\numberline {1.2}Funciones para calcular la ra\'iz cuadrada}{4}}
\@writefile{lof}{\contentsline {figure}{\numberline {1}{\ignorespaces $f(x)$\relax }}{4}}
\@writefile{lof}{\contentsline {figure}{\numberline {2}{\ignorespaces $e(x)$\relax }}{5}}
\@writefile{toc}{\contentsline {subsection}{\numberline {1.3}M\'etodo de Punto Fijo}{5}}
\@writefile{lof}{\contentsline {figure}{\numberline {3}{\ignorespaces Ejemplo de Punto Fijo\relax }}{6}}
\@writefile{toc}{\contentsline {subsection}{\numberline {1.4}M\'etodo de Newton}{6}}
\@writefile{lof}{\contentsline {figure}{\numberline {4}{\ignorespaces Ejemplo del M\'etodo de Newton\relax }}{6}}
\@writefile{toc}{\contentsline {subsection}{\numberline {1.5}M\'etodo de la Secante}{7}}
\@writefile{lof}{\contentsline {figure}{\numberline {5}{\ignorespaces Ejemplo del M\'etodo de Secante\relax }}{7}}
\@writefile{toc}{\contentsline {subsection}{\numberline {1.6}Representaci\'on de los N\'umeros}{7}}
\@writefile{toc}{\contentsline {subsection}{\numberline {1.7}Errores de Representaci\'on}{7}}
\@writefile{toc}{\contentsline {section}{\numberline {2}Desarrollo}{9}}
\@writefile{toc}{\contentsline {subsection}{\numberline {2.1}Partiendo del Enunciado}{9}}
\@writefile{toc}{\contentsline {paragraph}{}{9}}
\@writefile{toc}{\contentsline {paragraph}{}{9}}
\@writefile{toc}{\contentsline {paragraph}{}{9}}
\@writefile{toc}{\contentsline {subsection}{\numberline {2.2}Demostraci\'on de convergencia para $f(x)$}{9}}
\@writefile{toc}{\contentsline {paragraph}{}{9}}
\@writefile{toc}{\contentsline {paragraph}{1)}{9}}
\@writefile{toc}{\contentsline {paragraph}{}{9}}
\@writefile{toc}{\contentsline {paragraph}{2)}{9}}
\@writefile{toc}{\contentsline {paragraph}{}{10}}
\@writefile{toc}{\contentsline {paragraph}{}{10}}
\@writefile{toc}{\contentsline {paragraph}{3)}{10}}
\@writefile{toc}{\contentsline {paragraph}{Al haberse cumplido estas 3 condiciones, por teorema, $g(x)$ converge a su \'unico punto fijo. Con $x \in [\sqrt  {\alpha },x_0]$.}{10}}
\@writefile{toc}{\contentsline {subsection}{\numberline {2.3}Criterio de Parada}{10}}
\@writefile{toc}{\contentsline {subsection}{\numberline {2.4}Algoritmos}{11}}
\@writefile{toc}{\contentsline {subsubsection}{\numberline {2.4.1}Implementaci\'on del Algoritmo de Newton}{11}}
\@writefile{toc}{\contentsline {subsubsection}{\numberline {2.4.2}Implementaci\'on del Algoritmo de la Secante}{11}}
\@writefile{toc}{\contentsline {subsection}{\numberline {2.5}Consideraciones para los Tests}{11}}
\@writefile{toc}{\contentsline {paragraph}{}{11}}
\@writefile{toc}{\contentsline {paragraph}{}{11}}
\@writefile{toc}{\contentsline {section}{\numberline {3}Resultados}{12}}
\@writefile{toc}{\contentsline {subsection}{\numberline {3.1}Resultados de la funci\'on $f(x)$}{12}}
\@writefile{toc}{\contentsline {subsubsection}{\numberline {3.1.1}Selecci\'on de Semilla}{12}}
\@writefile{toc}{\contentsline {subsubsection}{\numberline {3.1.2}Selecci\'on de Cantidad de iteraciones}{12}}
\@writefile{toc}{\contentsline {subsubsection}{\numberline {3.1.3}Selecci\'on de Error Absoluto}{13}}
\@writefile{toc}{\contentsline {subsubsection}{\numberline {3.1.4}Selecci\'on de diferencia entre $X_n - X_{n-1}$}{13}}
\@writefile{toc}{\contentsline {subsubsection}{\numberline {3.1.5}Resultados sobre convergencia para distintos valores de $\alpha $}{13}}
\@writefile{toc}{\contentsline {subsection}{\numberline {3.2}Resultados de la funci\'on $e(x)$ para Newton}{15}}
\@writefile{toc}{\contentsline {subsubsection}{\numberline {3.2.1}Selecci\'on de Cantidad de iteraciones}{15}}
\@writefile{toc}{\contentsline {subsubsection}{\numberline {3.2.2}Selecci\'on de Error Absoluto}{15}}
\@writefile{toc}{\contentsline {subsubsection}{\numberline {3.2.3}Selecci\'on de diferencia entre $X_n - X_{n-1}$}{15}}
\@writefile{toc}{\contentsline {subsubsection}{\numberline {3.2.4}Resultados sobre convergencia para distintos valores de $x_0$}{15}}
\@writefile{toc}{\contentsline {paragraph}{1)}{15}}
\@writefile{toc}{\contentsline {paragraph}{2)}{16}}
\@writefile{toc}{\contentsline {paragraph}{3)}{16}}
\@writefile{toc}{\contentsline {paragraph}{4)}{16}}
\@writefile{toc}{\contentsline {paragraph}{}{16}}
\@writefile{toc}{\contentsline {subsubsection}{\numberline {3.2.5}Resultados sobre convergencia para distintos valores de $\alpha $}{16}}
\@writefile{toc}{\contentsline {subsection}{\numberline {3.3}Resultados de la funci\'on $e(x)$ para Secante}{18}}
\@writefile{toc}{\contentsline {subsubsection}{\numberline {3.3.1}Selecci\'on de Cantidad de iteraciones}{18}}
\@writefile{toc}{\contentsline {paragraph}{}{18}}
\@writefile{toc}{\contentsline {subsubsection}{\numberline {3.3.2}Selecci\'on de Error Absoluto}{18}}
\@writefile{toc}{\contentsline {subsubsection}{\numberline {3.3.3}Selecci\'on de diferencia entre $X_n - X{n-1}$}{18}}
\@writefile{toc}{\contentsline {subsubsection}{\numberline {3.3.4}Resultados sobre convergencia para distintos valores de $x_0$ y $x_1$}{19}}
\@writefile{toc}{\contentsline {paragraph}{1)}{19}}
\@writefile{toc}{\contentsline {paragraph}{}{19}}
\@writefile{toc}{\contentsline {paragraph}{2)}{19}}
\@writefile{toc}{\contentsline {paragraph}{3)}{19}}
\@writefile{toc}{\contentsline {paragraph}{4)}{20}}
\@writefile{toc}{\contentsline {paragraph}{}{20}}
\@writefile{toc}{\contentsline {subsubsection}{\numberline {3.3.5}Resultados sobre convergencia para distintos valores de $\alpha $}{20}}
\@writefile{toc}{\contentsline {section}{\numberline {4}Discusi\'on}{22}}
\@writefile{toc}{\contentsline {subsection}{\numberline {4.1}An\'alisis de la Funci\'on $f(x)$}{22}}
\@writefile{toc}{\contentsline {subsection}{\numberline {4.2}An\'alisis de la funcion $e$ para Newton}{23}}
\@writefile{toc}{\contentsline {paragraph}{}{23}}
\@writefile{lof}{\contentsline {figure}{\numberline {6}{\ignorespaces $g_e(x)$ con distintos $\alpha $'s\relax }}{23}}
\@writefile{toc}{\contentsline {paragraph}{}{23}}
\@writefile{toc}{\contentsline {paragraph}{}{23}}
\@writefile{toc}{\contentsline {paragraph}{}{24}}
\@writefile{toc}{\contentsline {paragraph}{}{24}}
\@writefile{toc}{\contentsline {subsection}{\numberline {4.3}An\'alisis de la funcion $e$ para Secante}{24}}
\@writefile{toc}{\contentsline {section}{\numberline {5}Conclusiones}{25}}
\@writefile{toc}{\contentsline {subsection}{\numberline {5.1}Conclusiones sobre la Funci\'on $f(x)$}{25}}
\@writefile{toc}{\contentsline {subsection}{\numberline {5.2}Conclusiones sobre la Funci\'on $e(x)$}{25}}
\@writefile{toc}{\contentsline {subsubsection}{\numberline {5.2.1}Newton vs Secante}{25}}
\@writefile{toc}{\contentsline {subsection}{\numberline {5.3}$f(x)$ vs $e(x)$}{25}}
\@writefile{toc}{\contentsline {section}{\numberline {6}Ap\'endices}{27}}
\@writefile{toc}{\contentsline {subsection}{\numberline {6.1}Ap\'endice A: Trabajo Pr\'actico 1}{27}}
\@writefile{toc}{\contentsline {subsection}{\numberline {6.2}Ap\'endice B: C\'odigo}{29}}
\@writefile{toc}{\contentsline {subsubsection}{\numberline {6.2.1}Implementaci\'on para calcular F}{29}}
\@writefile{toc}{\contentsline {subsubsection}{\numberline {6.2.2}Implementaci\'on para calcular E utilizando Newton}{29}}
\@writefile{toc}{\contentsline {subsubsection}{\numberline {6.2.3}Implementaci\'on para calcular E utilizando Secante}{30}}
\@writefile{toc}{\contentsline {subsubsection}{\numberline {6.2.4}Criterio de Parada}{30}}
\@writefile{toc}{\contentsline {subsubsection}{\numberline {6.2.5}Medici\'on de Tiempos}{31}}
\@writefile{toc}{\contentsline {subsection}{\numberline {6.3}Ap\'endice I : Manual de uso}{32}}
\@writefile{toc}{\contentsline {subsubsection}{\numberline {6.3.1}Compilaci\'on}{32}}
\@writefile{toc}{\contentsline {subsubsection}{\numberline {6.3.2}Par\'ametros}{32}}
\@writefile{toc}{\contentsline {subsection}{\numberline {6.4}Bibliografia}{33}}
